-------------------------------------------------------------------------------
Test set: com.mycompany.usercrud.UserServiceTest
-------------------------------------------------------------------------------
Tests run: 4, Failures: 0, Errors: 0, Skipped: 0, Time elapsed: 0.051 s - in com.mycompany.usercrud.UserServiceTest
