com\mycompany\usercrud\UserService.class
com\mycompany\usercrud\UserFrame$3.class
com\mycompany\usercrud\UserFrame$5.class
com\mycompany\usercrud\UserFrame$2.class
com\mycompany\usercrud\UserFrame$6.class
com\mycompany\usercrud\UserFrame$7.class
com\mycompany\usercrud\UserFrame$1.class
com\mycompany\usercrud\User.class
com\mycompany\usercrud\UserFrame$11.class
com\mycompany\usercrud\UserFrame.class
com\mycompany\usercrud\UserFrame$8.class
com\mycompany\usercrud\UserManagementProject.class
com\mycompany\usercrud\UserFrame$9.class
com\mycompany\usercrud\UserFrame$10.class
com\mycompany\usercrud\UserFrame$4.class
